Munich Airbnb Price Prediction · Portfolio Website for Advait Jayant
…
# Changing all the NAs in missing value to 0s
listings <- listings %>%
  mutate(cleaning_fee = case_when(
    is.na(cleaning_fee) ~ 0, 
    TRUE ~ cleaning_fee
  ))

Let us take a look at the property_type attribute. We want to check which properties are frequented most in our analysis.

# Checking the number of properties in each property type
listings %>% 
  count(property_type) %>% 
  arrange(desc(n))

## # A tibble: 31 x 2
##    property_type          n
##    <chr>              <int>
##  1 Apartment           9675
##  2 House                397
##  3 Condominium          307
##  4 Serviced apartment   177
##  5 Loft                 144
##  6 Townhouse            127
##  7 Hotel                 62
##  8 Boutique hotel        52
##  9 Other                 31
## 10 Aparthotel            28
## # … with 21 more rows
…
# Create a new variable prop_type_simplified containing Apartments, Houses, Condominiums, Serviced Apartments, and Others
listings <- listings %>%
  mutate(prop_type_simplified = case_when(
    property_type %in% c("Apartment","House", "Condominium","Serviced apartment") ~ property_type, 
    TRUE ~ "Other"
  ))

Now, let’s check if we did this correctly.

# Checking for correct implementation
listings %>%
  count(property_type, prop_type_simplified) %>%
  arrange(desc(n))        

## # A tibble: 31 x 3
##    property_type      prop_type_simplified     n
##    <chr>              <chr>                <int>
##  1 Apartment          Apartment             9675
##  2 House              House                  397
##  3 Condominium        Condominium            307
##  4 Serviced apartment Serviced apartment     177
##  5 Loft               Other                  144
##  6 Townhouse          Other                  127
##  7 Hotel              Other                   62
##  8 Boutique hotel     Other                   52
##  9 Other              Other                   31
## 10 Aparthotel         Other                   28
## # … with 21 more rows

We can see that everything is perfect. Now let’s look at the minimum nights attribute.

# Counting the different unique minimum nights in our dataset
listings %>% 
  count(minimum_nights) %>% 
  arrange(desc(n))

## # A tibble: 72 x 2
##    minimum_nights     n
##             <dbl> <int>
##  1              1  4000
##  2              2  3589
##  3              3  1364
##  4              4   452
##  5              5   381
##  6              7   322
##  7             30   153
##  8             14   135
##  9              6   120
## 10             10   113
## # … with 62 more rows
…
final_listings

## # A tibble: 9,010 x 37
##    price cleaning_fee extra_people property_type number_of_revie…
##    <dbl>        <dbl>        <dbl> <fct>                    <dbl>
##  1    95           30           30 Apartment                   25
##  2    80           10           10 Apartment                  131
##  3    95           60           50 Apartment                   53
##  4   120           28            0 Apartment                   84
##  5    35           10           15 Apartment                    0
##  6    55           60           30 Apartment                   33
##  7    55           20           15 House                      467
##  8    65            0            0 Apartment                   64
##  9    54           32            0 Apartment                  211
## 10    67            0            0 Apartment                   89
## # … with 9,000 more rows, and 32 more variables: review_scores_rating <dbl>,
## #   host_response_time <lgl>, longitude <dbl>, latitude <dbl>,
## #   neighbourhood <chr>, neighbourhood_cleansed <chr>, host_is_superhost <fct>,
## #   host_acceptance_rate <dbl>, minimum_nights <dbl>,
## #   prop_type_simplified <chr>, room_type <fct>, guests_included <dbl>,
## #   has_availability <lgl>, last_review <date>, availability_365 <dbl>,
## #   amenities <chr>, is_location_exact <fct>, bathrooms <dbl>, bedrooms <dbl>,
## #   cancellation_policy <fct>, accommodates <dbl>, instant_bookable <fct>,
## #   availability_90 <dbl>, availability_30 <dbl>, has_tv <lgl>, has_wifi <lgl>,
…
# Creating our training dataset, which contains 70% of the data; we are filtering by (price > 0) to ensure that we don't leave in any 0 prices, as linear regression models don't work with 0s inside the model.
airbnb_train <- final_listings %>% sample_frac(.7) %>% filter(price > 0)

# Creating our training datset using antijoin: We select everything from our final_listings dataframe that isn't contained in our training dataset. 
airbnb_test  <- anti_join(final_listings, airbnb_train, by = 'id') %>% filter(price > 0)

# Sanity Checking in order to evaluate whether a claim or the result of a calculation can possibly be true
nrow(airbnb_train) + nrow(airbnb_test) == nrow(final_listings %>% filter(price > 0))

## [1] TRUE

# Outputting the training dataset
airbnb_train

## # A tibble: 1,878 x 40
##    price cleaning_fee extra_people property_type number_of_revie…
##    <dbl>        <dbl>        <dbl> <fct>                    <dbl>
##  1    38           35           20 Apartment                   20
##  2   149           40           50 Apartment                   12
##  3   190           25            0 Apartment                   22
##  4   150           50           30 Condominium                158
##  5    95            5            0 Apartment                   19
##  6   195          110           25 Apartment                  107
##  7    39            0            0 Apartment                   47
##  8    85           10           40 Apartment                   21
##  9   150            0           40 Apartment                   12
## 10   220           75           20 Apartment                   56
## # … with 1,868 more rows, and 35 more variables: review_scores_rating <dbl>,
## #   host_response_time <lgl>, longitude <dbl>, latitude <dbl>,
## #   neighbourhood <chr>, neighbourhood_cleansed <chr>, host_is_superhost <fct>,
## #   host_acceptance_rate <dbl>, minimum_nights <dbl>,
## #   prop_type_simplified <chr>, room_type <fct>, guests_included <dbl>,
## #   has_availability <lgl>, last_review <date>, availability_365 <dbl>,
## #   amenities <chr>, is_location_exact <fct>, bathrooms <dbl>, bedrooms <dbl>,
## #   cancellation_policy <fct>, accommodates <dbl>, instant_bookable <fct>,
## #   availability_90 <dbl>, availability_30 <dbl>, has_tv <lgl>, has_wifi <lgl>,
…
